{
    "KPlugin": {
        "Authors": [
            {
                "Email": "nicolas.fella@gmx.de",
                "Name": "Nicolas Fella",
                "Name[ar]": "نيقولا فيلا",
                "Name[az]": "Nicolas Fella",
                "Name[bg]": "Nicolas Fella",
                "Name[ca@valencia]": "Nicolas Fella",
                "Name[ca]": "Nicolas Fella",
                "Name[cs]": "Nicolas Fella",
                "Name[de]": "Nicolas Fella",
                "Name[el]": "Nicolas Fella",
                "Name[en_GB]": "Nicolas Fella",
                "Name[es]": "Nicolas Fella",
                "Name[eu]": "Nicolas Fella",
                "Name[fi]": "Nicolas Fella",
                "Name[fr]": "Nicolas Fella",
                "Name[gl]": "Nicolas Fella",
                "Name[hu]": "Nicolas Fella",
                "Name[ia]": "Nicolas Fella",
                "Name[id]": "Nicolas Fella",
                "Name[ie]": "Nicolas Fella",
                "Name[it]": "Nicolas Fella",
                "Name[ka]": "Nicolas Fella",
                "Name[ko]": "Nicolas Fella",
                "Name[lt]": "Nicolas Fella",
                "Name[nl]": "Nicolas Fella",
                "Name[nn]": "Nicolas Fella",
                "Name[pa]": "ਨਿਕੋਲਸ ਫੇਲਾ",
                "Name[pl]": "Nicolas Fella",
                "Name[pt]": "Nicolas Fella",
                "Name[pt_BR]": "Nicolas Fella",
                "Name[ro]": "Nicolas Fella",
                "Name[ru]": "Nicolas Fella",
                "Name[sk]": "Nicolas Fella",
                "Name[sl]": "Nicolas Fella",
                "Name[sv]": "Nicolas Fella",
                "Name[tr]": "Nicolas Fella",
                "Name[uk]": "Nicolas Fella",
                "Name[x-test]": "xxNicolas Fellaxx",
                "Name[zh_CN]": "Nicolas Fella",
                "Name[zh_TW]": "Nicolas Fella"
            }
        ],
        "BugReportUrl": "https://bugs.kde.org/enter_bug.cgi?product=systemsettings&component=kcm_bluetooth",
        "Description": "Manage Bluetooth devices",
        "Description[ar]": "يدير أجهزة بلوتوث",
        "Description[az]": "Bluetooth cihazlarını idarə edin",
        "Description[bg]": "Управление на Bluetooth устройства",
        "Description[ca@valencia]": "Gestiona els dispositius Bluetooth",
        "Description[ca]": "Gestiona els dispositius Bluetooth",
        "Description[cs]": "Spravovat zařízení Bluetooth",
        "Description[de]": "Bluetooth-Geräte verwalten",
        "Description[el]": "Διαχειρίζεται τις συσκευές του Bluetooth",
        "Description[en_GB]": "Manage Bluetooth devices",
        "Description[es]": "Gestión de dispositivos Bluetooth",
        "Description[eu]": "Kudeatu Bluetooth gailuak",
        "Description[fi]": "Hallitse Bluetooth-laitteita",
        "Description[fr]": "Gérer les périphériques Bluetooth",
        "Description[gl]": "Xestionar dispositivos de Bluetooth",
        "Description[hu]": "Bluetooth eszközök kezelése",
        "Description[ia]": "Gere dispositivos Bluetooth",
        "Description[id]": "Kelola peranti Bluetooth",
        "Description[ie]": "Gerentie de aparates Bluetooth",
        "Description[it]": "Gestisci i dispositivi Bluetooth",
        "Description[ka]": "ბლუთუზის მოწყობილობის მართვა",
        "Description[ko]": "블루투스 장치 관리",
        "Description[lt]": "Tvarkyti Bluetooth įrenginius",
        "Description[nl]": "Bluetooth-apparaten beheren",
        "Description[nn]": "Handsam Bluetooth-einingar",
        "Description[pa]": "ਬਲੂਟੁੱਥ ਡਿਵਾਈਸਾਂ ਦਾ ਇੰਤਜ਼ਾਮ ਕਰੋ",
        "Description[pl]": "Zarządzanie urządzeniami Bluetooth",
        "Description[pt]": "Gerir os dispositivos Bluetooth",
        "Description[pt_BR]": "Gerenciar dispositivos Bluetooth",
        "Description[ro]": "Gestionează dispozitive Bluetooth",
        "Description[ru]": "Управление устройствами Bluetooth",
        "Description[sk]": "Spravovať Bluetooth zariadenia",
        "Description[sl]": "Upravlja Bluetooth naprave",
        "Description[sv]": "Hantera Blåtandsenheter",
        "Description[tr]": "Bluetooth Aygıtlarını Yönet",
        "Description[uk]": "Керування пристроями Bluetooth",
        "Description[x-test]": "xxManage Bluetooth devicesxx",
        "Description[zh_CN]": "管理蓝牙设备",
        "Description[zh_TW]": "管理藍牙裝置",
        "FormFactors": [
            "handset",
            "tablet",
            "mediacenter",
            "desktop"
        ],
        "Icon": "preferences-system-bluetooth",
        "License": "GPL",
        "Name": "Bluetooth",
        "Name[ar]": "بلوتوث",
        "Name[az]": "Bluetooth",
        "Name[bg]": "Bluetooth",
        "Name[ca@valencia]": "Bluetooth",
        "Name[ca]": "Bluetooth",
        "Name[cs]": "Bluetooth",
        "Name[da]": "Bluetooth",
        "Name[de]": "Bluetooth",
        "Name[el]": "Bluetooth",
        "Name[en_GB]": "Bluetooth",
        "Name[es]": "Bluetooth",
        "Name[et]": "Bluetooth",
        "Name[eu]": "Bluetooth",
        "Name[fi]": "Bluetooth",
        "Name[fr]": "Bluetooth",
        "Name[gl]": "Bluetooth",
        "Name[hu]": "Bluetooth",
        "Name[ia]": "Bluetooth",
        "Name[id]": "Bluetooth",
        "Name[ie]": "Bluetooth",
        "Name[it]": "Bluetooth",
        "Name[ka]": "ბლუთუზი",
        "Name[ko]": "블루투스",
        "Name[lt]": "Bluetooth",
        "Name[ml]": "ബ്ലൂടൂത്ത്",
        "Name[nb]": "Bluetooth",
        "Name[nl]": "Bluetooth",
        "Name[nn]": "Bluetooth",
        "Name[pa]": "ਬਲੂਟੁੱਥ",
        "Name[pl]": "Bluetooth",
        "Name[pt]": "Bluetooth",
        "Name[pt_BR]": "Bluetooth",
        "Name[ro]": "Bluetooth",
        "Name[ru]": "Bluetooth",
        "Name[sk]": "Bluetooth",
        "Name[sl]": "Bluetooth",
        "Name[sr@ijekavian]": "Блутут",
        "Name[sr@ijekavianlatin]": "Bluetooth",
        "Name[sr@latin]": "Bluetooth",
        "Name[sr]": "Блутут",
        "Name[sv]": "Blåtand",
        "Name[tg]": "Bluetooth",
        "Name[tr]": "Bluetooth",
        "Name[uk]": "Bluetooth",
        "Name[x-test]": "xxBluetoothxx",
        "Name[zh_CN]": "蓝牙",
        "Name[zh_TW]": "藍牙",
        "Website": "http://kde.org"
    },
    "X-KDE-Keywords": "bluetooth,hardware,connection,devices,find devices,connect,disconnect,send file,receive file,transfer,wireless,visible,adapter,pin,trusted devices",
    "X-KDE-Keywords[az]": "bluetooth,hardware,connection,devices,find devices,connect,disconnect,send file,receive file,transfer,wireless,visible,adapter,pin,trusted devices,avadanlıq,bağlantı,cihaz,cihazı tapmaq,kəsilmə,fayl göndərmək,fayl qəbulu,köçürmə,görünən,uzlaşdırıcı,sancaq,etibarlı cihazlar",
    "X-KDE-Keywords[ca]": "bluetooth, maquinari,connexió,dispositius,troba els dispositius,connecta,desconnecta,envia un fitxer,rep un fitxer,transferència,sense fil,visible,adaptador,pin,dispositius de confiança",
    "X-KDE-Keywords[cs]": "bluetooth,hardware,spojení,zařízení,najít zařízení,spojit,odpojit,poslat soubor,přijmout soubor,přenos,bezdrátové,viditelné,adaptér,pin,důvěryhodná zařízení",
    "X-KDE-Keywords[el]": "bluetooth,υλικό,σύνδεση,συσκευές,εύρεση συσκευών,σύνδεση,αποσύνδεση,αποστολή αρχείου,λήψη αρχείου,μεταφορά,ασύρματο,ορατό,προσαρμογέας,κωδικός,έμπιστες συσκευές",
    "X-KDE-Keywords[en_GB]": "bluetooth,hardware,connection,devices,find devices,connect,disconnect,send file,receive file,transfer,wireless,visible,adaptor,pin,trusted devices",
    "X-KDE-Keywords[es]": "bluetooth,hardware,conexión,dispositivos,encontrar dispositivos,conectar,desconectar,enviar archivo,recibir archivo,transferir,inalámbrica,visible,adaptador,pin,dispositivos de confianza",
    "X-KDE-Keywords[eu]": "bluetooth,hardware,konexioa,gailuak,gailuak aurkitzea,konektatzea,deskonektatzea,fitxategia bidaltzea,fitxategia jasotzea,transferentzia,haririk gabekoa,ikusgaia,egokitzailea,pin,konfiantzako gailuak",
    "X-KDE-Keywords[fr]": "bluetooth, matériel, connexion, périphériques, recherche de périphériques, connexion, déconnexion, envoi de fichiers, réception de fichiers, sans fil, visible, adaptateur, code pin, périphériques de confiance",
    "X-KDE-Keywords[hsb]": "bluetooth,hardware,connection,devices,find devices,connect,disconnect,send file,receive file,transfer,wireless,visible,adapter,pin,trusted devices,grat,zwisk,grat namakać, zwjazać,dataja,dataju pósłać,dataju dóstać",
    "X-KDE-Keywords[hu]": "bluetooth,hardver,kapcsolat,eszközök,eszközök keresése,kapcsolódás,leválaszáts,fájl küldése,fájl fogadása,átvitel,vezeték nélküli,látható,adapter,pin,megbízható eszközk",
    "X-KDE-Keywords[ia]": "bluetooth,hardware,connexion,dispositivoss,trova dispositivos,connecte,disconnecte,invia file,recipe file,transfere,sin cablo,visibile,adaptator,pin,dispositivos digne de fide",
    "X-KDE-Keywords[ko]": "bluetooth,hardware,connection,devices,find devices,connect,disconnect,send file,receive file,transfer,wireless,visible,adapter,pin,trusted devices,블루투스,하드웨어,연결,장치,장치 찾기,연결 해제,파일 전송,파일 보내기,파일 받기,무선,표시,어댑터,페어링",
    "X-KDE-Keywords[lt]": "bluetooth,aparatinė įranga,aparatine iranga,ryšiai,rysiai,ryšys,rysys,įrenginiai,irenginiai,rasti įrenginius,rasti irenginius,ieškoti įrenginių,ieskoti irenginiu,ieškoti įrenginius,ieskoti irenginius,prisijungti,atsijungti,siųsti failą,siusti faila,gauti failą,gauti faila,persiųsti,persiusti,perduoti,belaidis,matomas,adapteris,pin,pin kodas,patikimi įrenginiai,patikimi irenginiai",
    "X-KDE-Keywords[nl]": "bluetooth,hardware,verbinding,apparaten,apparaten zoeken,verbinden,verbreken,bestand verzenden,bestand ontvangen,overdracht,draadloos,zichtbaar,adapter,pin,vertrouwde apparaten",
    "X-KDE-Keywords[pl]": "bluetooth,sprzęt,podłączenie,urządzenia,znajdź urządzenia,podłącz,odłącz,wyślij plik,odbierz plik,przesył,bezprzewodowo,widoczność,adapter,pin,zaufane urządzenia",
    "X-KDE-Keywords[pt]": "bluetooth,hardware,ligação,dispositivos,procurar os dispositivos,ligar,desligar,enviar um ficheiro,receber um ficheiro,transferir,sem-fios,visível,adaptador,pin,dispositivos de confiança",
    "X-KDE-Keywords[pt_BR]": "bluetooth,hardware,conexão,dispositivos,encontrar dispositivos,conectar,desconectar,enviar arquivo,receber arquivo,transferência,sem fio,wireless,visível,adaptador,pin,dispositivos confiáveis",
    "X-KDE-Keywords[ru]": "bluetooth,hardware,connection,devices,find devices,connect,disconnect,send file,receive file,transfer,wireless,visible,adapter,pin,trusted devices,оборудование,соединение,устройство,поиск,подключение,отключение,передать файл,получить файл,видимость,адаптер,пин,доверенные устройства",
    "X-KDE-Keywords[sk]": "bluetooth,hardvér,pripojenie,zariadenia,hľadať zariadenia,pripojiť,odpojiť,odoslať súbor,prijať súbor,preniesť,bezdrôtové,viditeľný,adaptér,pin,dôveryhodné zariadenia",
    "X-KDE-Keywords[sl]": "bluetooth,strojna oprema,povezava,naprave,najdi naprave,priklopi,odklopi,pošlji datoteko,prejmi datoteko,prenos,brezžično,vidno,adapter,pin,zaupanja vredne naprave",
    "X-KDE-Keywords[sv]": "blåtand,maskinvara,anslutning,enheter,sök enheter,anslut,koppla ner,skicka fil,ta emot fil,överföring,trådlös,synlig,adapter,pin-kod,pålitliga enheter",
    "X-KDE-Keywords[tr]": "bluetooth,donanım,bağlantı,cihazlar,cihazları bul,bağlan,bağlantıyı kes, gönder dosya,dosya al,aktar,kablosuz,görünür,bağdaştırıcı,pin,güvenilir cihazlar",
    "X-KDE-Keywords[uk]": "bluetooth,hardware,connection,devices,find devices,connect,disconnect,send file,receive file,transfer,wireless,visible,adapter,pin,trusted devices,блютуф,апаратура,обладнання,з'єднання,пристрої,пошук пристроїв,з'єднання,від'єднання,надіслати файл,отримати файл,передавання,бездротовий,видимий,адаптер,пін,довірені пристрої",
    "X-KDE-Keywords[x-test]": "xxbluetoothxx,xxhardwarexx,xxconnectionxx,xxdevicesxx,xxfind devicesxx,xxconnectxx,xxdisconnectxx,xxsend filexx,xxreceive filexx,xxtransferxx,xxwirelessxx,xxvisiblexx,xxadapterxx,xxpinxx,xxtrusted devicesxx",
    "X-KDE-Keywords[zh_CN]": "bluetooth,hardware,connection,devices,find devices,connect,disconnect,send file,receive file,transfer,wireless,visible,adapter,pin,trusted devices,蓝牙,硬件,连接,设备,查找设备,断开连接,发送文件,接收文件,传输,无线,可见性,适配器,已信任设备,信任设备,已信任的设备,信任的设备",
    "X-KDE-ParentApp": "kcontrol",
    "X-KDE-System-Settings-Parent-Category": "hardware"
}
