{
    "KPlugin": {
        "Description": "Handles Bluetooth events",
        "Description[ar]": "يتعامل مع إجراءات بلوتوث",
        "Description[az]": "Bluetooth fəaliyyətini idarə edir",
        "Description[bg]": "Обработва Bluetooth събития",
        "Description[ca@valencia]": "Gestiona els esdeveniments de Bluetooth",
        "Description[ca]": "Gestiona els esdeveniments del Bluetooth",
        "Description[cs]": "Ovládá události Bluetooth",
        "Description[da]": "Håndterer Bluetooth-hændelser",
        "Description[de]": "Verarbeitung von Bluetooth-Ereignissen",
        "Description[el]": "Διαχειρίζεται τα γεγονότα του Bluetooth",
        "Description[en_GB]": "Handles Bluetooth events",
        "Description[es]": "Maneja eventos de Bluetooth",
        "Description[et]": "Bluetoothi sündmuste käitlemine",
        "Description[eu]": "Bluetooth gertaerak kudeatzen ditu",
        "Description[fi]": "Käsittelee Bluetooth-tapahtumia",
        "Description[fr]": "Gère les évènements Bluetooth",
        "Description[gl]": "Xestiona eventos de Bluetooth",
        "Description[hu]": "Bluetooth események kezelése",
        "Description[ia]": "Gere eventos de Bluetooth",
        "Description[id]": "Menangani peristiwa Bluetooth",
        "Description[ie]": "Processar evenimentes Bluetooth",
        "Description[it]": "Gestisce gli eventi Bluetooth",
        "Description[ka]": "ბლუთუზის მოვლენების დამუშავება",
        "Description[ko]": "블루투스 이벤트 처리",
        "Description[lt]": "Apdoroja Bluetooth įvykius",
        "Description[ml]": "ബ്ലൂടൂത്ത് ഇവന്റുകൾ കൈകാര്യം ചെയ്യുന്നു",
        "Description[nb]": "Håndterer Bluetooth-hendelser",
        "Description[nl]": "Behandelt bluetooth-gebeurtenissen",
        "Description[nn]": "Handterer Bluetooth-hendingar",
        "Description[pa]": "ਬਲੂਟੁੱਥ ਘਟਨਾਵਾਂ ਕੰਟਰੋਲ ਕਰਨ ਲਈ",
        "Description[pl]": "Obsługuje zdarzenia Bluetooth",
        "Description[pt]": "Lida com os eventos do Bluetooth",
        "Description[pt_BR]": "Lida com os eventos de Bluetooth",
        "Description[ro]": "Manipulează evenimente Bluetooth",
        "Description[ru]": "Обработчик событий Bluetooth",
        "Description[sk]": "Spracúva udalosti Bluetooth",
        "Description[sl]": "Obravnava Bluetooth dogodke",
        "Description[sr@ijekavian]": "Рукује блутут догађајима",
        "Description[sr@ijekavianlatin]": "Rukuje bluetooth događajima",
        "Description[sr@latin]": "Rukuje bluetooth događajima",
        "Description[sr]": "Рукује блутут догађајима",
        "Description[sv]": "Hanterar Blåtandhändelser",
        "Description[tg]": "Рӯйдодҳои Bluetooth-ро коркард мекунад",
        "Description[tr]": "Bluetooth olaylarını yönetir",
        "Description[uk]": "Обробляє події Bluetooth",
        "Description[x-test]": "xxHandles Bluetooth eventsxx",
        "Description[zh_CN]": "处理蓝牙事件",
        "Description[zh_TW]": "處理藍牙事件",
        "Name": "Bluetooth",
        "Name[ar]": "بلوتوث",
        "Name[az]": "Bluetooth",
        "Name[bg]": "Bluetooth",
        "Name[ca@valencia]": "Bluetooth",
        "Name[ca]": "Bluetooth",
        "Name[cs]": "Bluetooth",
        "Name[da]": "Bluetooth",
        "Name[de]": "Bluetooth",
        "Name[el]": "Bluetooth",
        "Name[en_GB]": "Bluetooth",
        "Name[es]": "Bluetooth",
        "Name[et]": "Bluetooth",
        "Name[eu]": "Bluetooth",
        "Name[fi]": "Bluetooth",
        "Name[fr]": "Bluetooth",
        "Name[gl]": "Bluetooth",
        "Name[hu]": "Bluetooth",
        "Name[ia]": "Bluetooth",
        "Name[id]": "Bluetooth",
        "Name[ie]": "Bluetooth",
        "Name[it]": "Bluetooth",
        "Name[ka]": "ბლუთუზი",
        "Name[ko]": "블루투스",
        "Name[lt]": "Bluetooth",
        "Name[ml]": "ബ്ലൂടൂത്ത്",
        "Name[nb]": "Bluetooth",
        "Name[nl]": "Bluetooth",
        "Name[nn]": "Bluetooth",
        "Name[pa]": "ਬਲੂਟੁੱਥ",
        "Name[pl]": "Bluetooth",
        "Name[pt]": "Bluetooth",
        "Name[pt_BR]": "Bluetooth",
        "Name[ro]": "Bluetooth",
        "Name[ru]": "Bluetooth",
        "Name[sk]": "Bluetooth",
        "Name[sl]": "Bluetooth",
        "Name[sr@ijekavian]": "Блутут",
        "Name[sr@ijekavianlatin]": "Bluetooth",
        "Name[sr@latin]": "Bluetooth",
        "Name[sr]": "Блутут",
        "Name[sv]": "Blåtand",
        "Name[tg]": "Bluetooth",
        "Name[tr]": "Bluetooth",
        "Name[uk]": "Bluetooth",
        "Name[x-test]": "xxBluetoothxx",
        "Name[zh_CN]": "蓝牙",
        "Name[zh_TW]": "藍牙"
    },
    "X-KDE-Kded-autoload": true,
    "X-KDE-Kded-load-on-demand": false
}
